{
    "/frontend/vue/about.js": "/frontend/vue/about.js",
    "/frontend/vue/chef/index.js": "/frontend/vue/chef/index.js",
    "/frontend/vue/consumer/account/gcash.js": "/frontend/vue/consumer/account/gcash.js",
    "/frontend/vue/consumer/account/order.js": "/frontend/vue/consumer/account/order.js",
    "/frontend/vue/consumer/account/profile.js": "/frontend/vue/consumer/account/profile.js",
    "/frontend/vue/consumer/account/register.js": "/frontend/vue/consumer/account/register.js",
    "/frontend/vue/consumer/chef.js": "/frontend/vue/consumer/chef.js",
    "/frontend/vue/consumer/contact/delivery.js": "/frontend/vue/consumer/contact/delivery.js",
    "/frontend/vue/consumer/contact/kitchen.js": "/frontend/vue/consumer/contact/kitchen.js",
    "/frontend/vue/consumer/cuisine/template.js": "/frontend/vue/consumer/cuisine/template.js",
    "/frontend/vue/consumer/index.js": "/frontend/vue/consumer/index.js",
    "/frontend/vue/consumer/legal/privacy.js": "/frontend/vue/consumer/legal/privacy.js",
    "/frontend/vue/consumer/legal/term.js": "/frontend/vue/consumer/legal/term.js",
    "/frontend/vue/consumer/menu.js": "/frontend/vue/consumer/menu.js",
    "/frontend/vue/consumer/menulisting.js": "/frontend/vue/consumer/menulisting.js",
    "/frontend/vue/consumer/order/checkout.js": "/frontend/vue/consumer/order/checkout.js",
    "/frontend/vue/consumer/order/failed.js": "/frontend/vue/consumer/order/failed.js",
    "/frontend/vue/consumer/order/progress.js": "/frontend/vue/consumer/order/progress.js",
    "/frontend/vue/consumer/order/review.js": "/frontend/vue/consumer/order/review.js",
    "/frontend/vue/consumer/promotion/template.js": "/frontend/vue/consumer/promotion/template.js",
    "/frontend/vue/consumer/search.js": "/frontend/vue/consumer/search.js",
    "/frontend/vue/event/index.js": "/frontend/vue/event/index.js",
    "/frontend/vue/footer.js": "/frontend/vue/footer.js",
    "/frontend/css/global.css": "/frontend/css/global.css",
    "/frontend/css/fontawesome.css": "/frontend/css/fontawesome.css",
    "/frontend/vue/header/chef.js": "/frontend/vue/header/chef.js",
    "/frontend/vue/header/consumer.js": "/frontend/vue/header/consumer.js",
    "/frontend/vue/header/main.js": "/frontend/vue/header/main.js",
    "/frontend/vue/landing.js": "/frontend/vue/landing.js"
}
